%YAML 1.1
%TAG !u! tag:unity3d.com,2011:
--- !u!29 &1
OcclusionCullingSettings:
  m_ObjectHideFlags: 0
  serializedVersion: 2
  m_OcclusionBakeSettings:
    smallestOccluder: 5
    smallestHole: 0.25
    backfaceThreshold: 100
  m_SceneGUID: 00000000000000000000000000000000
  m_OcclusionCullingData: {fileID: 0}
--- !u!104 &2
RenderSettings:
  m_ObjectHideFlags: 0
  serializedVersion: 9
  m_Fog: 0
  m_FogColor: {r: 0.5, g: 0.5, b: 0.5, a: 1}
  m_FogMode: 3
  m_FogDensity: 0.01
  m_LinearFogStart: 0
  m_LinearFogEnd: 300
  m_AmbientSkyColor: {r: 0.212, g: 0.227, b: 0.259, a: 1}
  m_AmbientEquatorColor: {r: 0.114, g: 0.125, b: 0.133, a: 1}
  m_AmbientGroundColor: {r: 0.047, g: 0.043, b: 0.035, a: 1}
  m_AmbientIntensity: 1
  m_AmbientMode: 3
  m_SubtractiveShadowColor: {r: 0.42, g: 0.478, b: 0.627, a: 1}
  m_SkyboxMaterial: {fileID: 0}
  m_HaloStrength: 0.5
  m_FlareStrength: 1
  m_FlareFadeSpeed: 3
  m_HaloTexture: {fileID: 0}
  m_SpotCookie: {fileID: 10001, guid: 0000000000000000e000000000000000, type: 0}
  m_DefaultReflectionMode: 0
  m_DefaultReflectionResolution: 128
  m_ReflectionBounces: 1
  m_ReflectionIntensity: 1
  m_CustomReflection: {fileID: 0}
  m_Sun: {fileID: 0}
  m_IndirectSpecularColor: {r: 0, g: 0, b: 0, a: 1}
  m_UseRadianceAmbientProbe: 0
--- !u!157 &3
LightmapSettings:
  m_ObjectHideFlags: 0
  serializedVersion: 11
  m_GIWorkflowMode: 1
  m_GISettings:
    serializedVersion: 2
    m_BounceScale: 1
    m_IndirectOutputScale: 1
    m_AlbedoBoost: 1
    m_EnvironmentLightingMode: 0
    m_EnableBakedLightmaps: 0
    m_EnableRealtimeLightmaps: 0
  m_LightmapEditorSettings:
    serializedVersion: 10
    m_Resolution: 2
    m_BakeResolution: 40
    m_AtlasSize: 1024
    m_AO: 0
    m_AOMaxDistance: 1
    m_CompAOExponent: 1
    m_CompAOExponentDirect: 0
    m_Padding: 2
    m_LightmapParameters: {fileID: 0}
    m_LightmapsBakeMode: 1
    m_TextureCompression: 1
    m_FinalGather: 0
    m_FinalGatherFiltering: 1
    m_FinalGatherRayCount: 256
    m_ReflectionCompression: 2
    m_MixedBakeMode: 2
    m_BakeBackend: 0
    m_PVRSampling: 1
    m_PVRDirectSampleCount: 32
    m_PVRSampleCount: 500
    m_PVRBounces: 2
    m_PVRFilterTypeDirect: 0
    m_PVRFilterTypeIndirect: 0
    m_PVRFilterTypeAO: 0
    m_PVRFilteringMode: 1
    m_PVRCulling: 1
    m_PVRFilteringGaussRadiusDirect: 1
    m_PVRFilteringGaussRadiusIndirect: 5
    m_PVRFilteringGaussRadiusAO: 2
    m_PVRFilteringAtrousPositionSigmaDirect: 0.5
    m_PVRFilteringAtrousPositionSigmaIndirect: 2
    m_PVRFilteringAtrousPositionSigmaAO: 1
    m_ShowResolutionOverlay: 1
  m_LightingDataAsset: {fileID: 0}
  m_UseShadowmask: 1
--- !u!196 &4
NavMeshSettings:
  serializedVersion: 2
  m_ObjectHideFlags: 0
  m_BuildSettings:
    serializedVersion: 2
    agentTypeID: 0
    agentRadius: 0.5
    agentHeight: 2
    agentSlope: 45
    agentClimb: 0.4
    ledgeDropHeight: 0
    maxJumpAcrossDistance: 0
    minRegionArea: 2
    manualCellSize: 0
    cellSize: 0.16666667
    manualTileSize: 0
    tileSize: 256
    accuratePlacement: 0
    debug:
      m_Flags: 0
  m_NavMeshData: {fileID: 0}
--- !u!1001 &129738369
PrefabInstance:
  m_ObjectHideFlags: 0
  serializedVersion: 2
  m_Modification:
    m_TransformParent: {fileID: 0}
    m_Modifications:
    - target: {fileID: 8677629711170416854, guid: a6ef1bd00fb32ac498c68884225e426c,
        type: 3}
      propertyPath: m_Name
      value: cloudPrefab (23)
      objectReference: {fileID: 0}
    - target: {fileID: 8677629711170416852, guid: a6ef1bd00fb32ac498c68884225e426c,
        type: 3}
      propertyPath: m_LocalPosition.x
      value: 0.00177598
      objectReference: {fileID: 0}
    - target: {fileID: 8677629711170416852, guid: a6ef1bd00fb32ac498c68884225e426c,
        type: 3}
      propertyPath: m_LocalPosition.y
      value: 12.0129795
      objectReference: {fileID: 0}
    - target: {fileID: 8677629711170416852, guid: a6ef1bd00fb32ac498c68884225e426c,
        type: 3}
      propertyPath: m_LocalPosition.z
      value: 0
      objectReference: {fileID: 0}
    - target: {fileID: 8677629711170416852, guid: a6ef1bd00fb32ac498c68884225e426c,
        type: 3}
      propertyPath: m_LocalRotation.x
      value: 0
      objectReference: {fileID: 0}
    - target: {fileID: 8677629711170416852, guid: a6ef1bd00fb32ac498c68884225e426c,
        type: 3}
      propertyPath: m_LocalRotation.y
      value: 0
      objectReference: {fileID: 0}
    - target: {fileID: 8677629711170416852, guid: a6ef1bd00fb32ac498c68884225e426c,
        type: 3}
      propertyPath: m_LocalRotation.z
      value: 0
      objectReference: {fileID: 0}
    - target: {fileID: 8677629711170416852, guid: a6ef1bd00fb32ac498c68884225e426c,
        type: 3}
      propertyPath: m_LocalRotation.w
      value: 1
      objectReference: {fileID: 0}
    - target: {fileID: 8677629711170416852, guid: a6ef1bd00fb32ac498c68884225e426c,
        type: 3}
      propertyPath: m_RootOrder
      value: 5
      objectReference: {fileID: 0}
    - target: {fileID: 8677629711170416852, guid: a6ef1bd00fb32ac498c68884225e426c,
        type: 3}
      propertyPath: m_LocalEulerAnglesHint.x
      value: 0
      objectReference: {fileID: 0}
    - target: {fileID: 8677629711170416852, guid: a6ef1bd00fb32ac498c68884225e426c,
        type: 3}
      propertyPath: m_LocalEulerAnglesHint.y
      value: 0
      objectReference: {fileID: 0}
    - target: {fileID: 8677629711170416852, guid: a6ef1bd00fb32ac498c68884225e426c,
        type: 3}
      propertyPath: m_LocalEulerAnglesHint.z
      value: 0
      objectReference: {fileID: 0}
    m_RemovedComponents: []
  m_SourcePrefab: {fileID: 100100000, guid: a6ef1bd00fb32ac498c68884225e426c, type: 3}
--- !u!1001 &147427964
PrefabInstance:
  m_ObjectHideFlags: 0
  serializedVersion: 2
  m_Modification:
    m_TransformParent: {fileID: 0}
    m_Modifications:
    - target: {fileID: 8677629711170416854, guid: a6ef1bd00fb32ac498c68884225e426c,
        type: 3}
      propertyPath: m_Name
      value: cloudPrefab (3)
      objectReference: {fileID: 0}
    - target: {fileID: 8677629711170416852, guid: a6ef1bd00fb32ac498c68884225e426c,
        type: 3}
      propertyPath: m_LocalPosition.x
      value: -1.94
      objectReference: {fileID: 0}
    - target: {fileID: 8677629711170416852, guid: a6ef1bd00fb32ac498c68884225e426c,
        type: 3}
      propertyPath: m_LocalPosition.y
      value: -3.08
      objectReference: {fileID: 0}
    - target: {fileID: 8677629711170416852, guid: a6ef1bd00fb32ac498c68884225e426c,
        type: 3}
      propertyPath: m_LocalPosition.z
      value: 0
      objectReference: {fileID: 0}
    - target: {fileID: 8677629711170416852, guid: a6ef1bd00fb32ac498c68884225e426c,
        type: 3}
      propertyPath: m_LocalRotation.x
      value: 0
      objectReference: {fileID: 0}
    - target: {fileID: 8677629711170416852, guid: a6ef1bd00fb32ac498c68884225e426c,
        type: 3}
      propertyPath: m_LocalRotation.y
      value: 0
      objectReference: {fileID: 0}
    - target: {fileID: 8677629711170416852, guid: a6ef1bd00fb32ac498c68884225e426c,
        type: 3}
      propertyPath: m_LocalRotation.z
      value: 0
      objectReference: {fileID: 0}
    - target: {fileID: 8677629711170416852, guid: a6ef1bd00fb32ac498c68884225e426c,
        type: 3}
      propertyPath: m_LocalRotation.w
      value: 1
      objectReference: {fileID: 0}
    - target: {fileID: 8677629711170416852, guid: a6ef1bd00fb32ac498c68884225e426c,
        type: 3}
      propertyPath: m_RootOrder
      value: 23
      objectReference: {fileID: 0}
    - target: {fileID: 8677629711170416852, guid: a6ef1bd00fb32ac498c68884225e426c,
        type: 3}
      propertyPath: m_LocalEulerAnglesHint.x
      value: 0
      objectReference: {fileID: 0}
    - target: {fileID: 8677629711170416852, guid: a6ef1bd00fb32ac498c68884225e426c,
        type: 3}
      propertyPath: m_LocalEulerAnglesHint.y
      value: 0
      objectReference: {fileID: 0}
    - target: {fileID: 8677629711170416852, guid: a6ef1bd00fb32ac498c68884225e426c,
        type: 3}
      propertyPath: m_LocalEulerAnglesHint.z
      value: 0
      objectReference: {fileID: 0}
    m_RemovedComponents: []
  m_SourcePrefab: {fileID: 100100000, guid: a6ef1bd00fb32ac498c68884225e426c, type: 3}
--- !u!1001 &214400011
PrefabInstance:
  m_ObjectHideFlags: 0
  serializedVersion: 2
  m_Modification:
    m_TransformParent: {fileID: 0}
    m_Modifications:
    - target: {fileID: 8677629711170416854, guid: a6ef1bd00fb32ac498c68884225e426c,
        type: 3}
      propertyPath: m_Name
      value: cloudPrefab (22)
      objectReference: {fileID: 0}
    - target: {fileID: 8677629711170416852, guid: a6ef1bd00fb32ac498c68884225e426c,
        type: 3}
      propertyPath: m_LocalPosition.x
      value: -1.92
      objectReference: {fileID: 0}
    - target: {fileID: 8677629711170416852, guid: a6ef1bd00fb32ac498c68884225e426c,
        type: 3}
      propertyPath: m_LocalPosition.y
      value: 17.1
      objectReference: {fileID: 0}
    - target: {fileID: 8677629711170416852, guid: a6ef1bd00fb32ac498c68884225e426c,
        type: 3}
      propertyPath: m_LocalPosition.z
      value: 0
      objectReference: {fileID: 0}
    - target: {fileID: 8677629711170416852, guid: a6ef1bd00fb32ac498c68884225e426c,
        type: 3}
      propertyPath: m_LocalRotation.x
      value: 0
      objectReference: {fileID: 0}
    - target: {fileID: 8677629711170416852, guid: a6ef1bd00fb32ac498c68884225e426c,
        type: 3}
      propertyPath: m_LocalRotation.y
      value: 0
      objectReference: {fileID: 0}
    - target: {fileID: 8677629711170416852, guid: a6ef1bd00fb32ac498c68884225e426c,
        type: 3}
      propertyPath: m_LocalRotation.z
      value: 0
      objectReference: {fileID: 0}
    - target: {fileID: 8677629711170416852, guid: a6ef1bd00fb32ac498c68884225e426c,
        type: 3}
      propertyPath: m_LocalRotation.w
      value: 1
      objectReference: {fileID: 0}
    - target: {fileID: 8677629711170416852, guid: a6ef1bd00fb32ac498c68884225e426c,
        type: 3}
      propertyPath: m_RootOrder
      value: 4
      objectReference: {fileID: 0}
    - target: {fileID: 8677629711170416852, guid: a6ef1bd00fb32ac498c68884225e426c,
        type: 3}
      propertyPath: m_LocalEulerAnglesHint.x
      value: 0
      objectReference: {fileID: 0}
    - target: {fileID: 8677629711170416852, guid: a6ef1bd00fb32ac498c68884225e426c,
        type: 3}
      propertyPath: m_LocalEulerAnglesHint.y
      value: 0
      objectReference: {fileID: 0}
    - target: {fileID: 8677629711170416852, guid: a6ef1bd00fb32ac498c68884225e426c,
        type: 3}
      propertyPath: m_LocalEulerAnglesHint.z
      value: 0
      objectReference: {fileID: 0}
    m_RemovedComponents: []
  m_SourcePrefab: {fileID: 100100000, guid: a6ef1bd00fb32ac498c68884225e426c, type: 3}
--- !u!1001 &246046727
PrefabInstance:
  m_ObjectHideFlags: 0
  serializedVersion: 2
  m_Modification:
    m_TransformParent: {fileID: 0}
    m_Modifications:
    - target: {fileID: 8677629711170416854, guid: a6ef1bd00fb32ac498c68884225e426c,
        type: 3}
      propertyPath: m_Name
      value: cloudPrefab (9)
      objectReference: {fileID: 0}
    - target: {fileID: 8677629711170416852, guid: a6ef1bd00fb32ac498c68884225e426c,
        type: 3}
      propertyPath: m_LocalPosition.x
      value: -1.736402
      objectReference: {fileID: 0}
    - target: {fileID: 8677629711170416852, guid: a6ef1bd00fb32ac498c68884225e426c,
        type: 3}
      propertyPath: m_LocalPosition.y
      value: 2.687075
      objectReference: {fileID: 0}
    - target: {fileID: 8677629711170416852, guid: a6ef1bd00fb32ac498c68884225e426c,
        type: 3}
      propertyPath: m_LocalPosition.z
      value: 0
      objectReference: {fileID: 0}
    - target: {fileID: 8677629711170416852, guid: a6ef1bd00fb32ac498c68884225e426c,
        type: 3}
      propertyPath: m_LocalRotation.x
      value: 0
      objectReference: {fileID: 0}
    - target: {fileID: 8677629711170416852, guid: a6ef1bd00fb32ac498c68884225e426c,
        type: 3}
      propertyPath: m_LocalRotation.y
      value: 0
      objectReference: {fileID: 0}
    - target: {fileID: 8677629711170416852, guid: a6ef1bd00fb32ac498c68884225e426c,
        type: 3}
      propertyPath: m_LocalRotation.z
      value: 0
      objectReference: {fileID: 0}
    - target: {fileID: 8677629711170416852, guid: a6ef1bd00fb32ac498c68884225e426c,
        type: 3}
      propertyPath: m_LocalRotation.w
      value: 1
      objectReference: {fileID: 0}
    - target: {fileID: 8677629711170416852, guid: a6ef1bd00fb32ac498c68884225e426c,
        type: 3}
      propertyPath: m_RootOrder
      value: 15
      objectReference: {fileID: 0}
    - target: {fileID: 8677629711170416852, guid: a6ef1bd00fb32ac498c68884225e426c,
        type: 3}
      propertyPath: m_LocalEulerAnglesHint.x
      value: 0
      objectReference: {fileID: 0}
    - target: {fileID: 8677629711170416852, guid: a6ef1bd00fb32ac498c68884225e426c,
        type: 3}
      propertyPath: m_LocalEulerAnglesHint.y
      value: 0
      objectReference: {fileID: 0}
    - target: {fileID: 8677629711170416852, guid: a6ef1bd00fb32ac498c68884225e426c,
        type: 3}
      propertyPath: m_LocalEulerAnglesHint.z
      value: 0
      objectReference: {fileID: 0}
    m_RemovedComponents: []
  m_SourcePrefab: {fileID: 100100000, guid: a6ef1bd00fb32ac498c68884225e426c, type: 3}
--- !u!1 &408981030
GameObject:
  m_ObjectHideFlags: 0
  m_CorrespondingSourceObject: {fileID: 0}
  m_PrefabInstance: {fileID: 0}
  m_PrefabAsset: {fileID: 0}
  serializedVersion: 6
  m_Component:
  - component: {fileID: 408981032}
  - component: {fileID: 408981031}
  m_Layer: 0
  m_Name: background
  m_TagString: Untagged
  m_Icon: {fileID: 0}
  m_NavMeshLayer: 0
  m_StaticEditorFlags: 0
  m_IsActive: 1
--- !u!212 &408981031
SpriteRenderer:
  m_ObjectHideFlags: 0
  m_CorrespondingSourceObject: {fileID: 0}
  m_PrefabInstance: {fileID: 0}
  m_PrefabAsset: {fileID: 0}
  m_GameObject: {fileID: 408981030}
  m_Enabled: 1
  m_CastShadows: 0
  m_ReceiveShadows: 0
  m_DynamicOccludee: 1
  m_MotionVectors: 1
  m_LightProbeUsage: 1
  m_ReflectionProbeUsage: 1
  m_RenderingLayerMask: 1
  m_RendererPriority: 0
  m_Materials:
  - {fileID: 10754, guid: 0000000000000000f000000000000000, type: 0}
  m_StaticBatchInfo:
    firstSubMesh: 0
    subMeshCount: 0
  m_StaticBatchRoot: {fileID: 0}
  m_ProbeAnchor: {fileID: 0}
  m_LightProbeVolumeOverride: {fileID: 0}
  m_ScaleInLightmap: 1
  m_PreserveUVs: 0
  m_IgnoreNormalsForChartDetection: 0
  m_ImportantGI: 0
  m_StitchLightmapSeams: 0
  m_SelectedEditorRenderState: 0
  m_MinimumChartSize: 4
  m_AutoUVMaxDistance: 0.5
  m_AutoUVMaxAngle: 89
  m_LightmapParameters: {fileID: 0}
  m_SortingLayerID: 0
  m_SortingLayer: 0
  m_SortingOrder: 0
  m_Sprite: {fileID: 21300000, guid: ef426c407ef795b42a6e787e80e6fc0c, type: 3}
  m_Color: {r: 1, g: 1, b: 1, a: 1}
  m_FlipX: 0
  m_FlipY: 0
  m_DrawMode: 0
  m_Size: {x: 2.93, y: 2.93}
  m_AdaptiveModeThreshold: 0.5
  m_SpriteTileMode: 0
  m_WasSpriteAssigned: 1
  m_MaskInteraction: 0
  m_SpriteSortPoint: 0
--- !u!4 &408981032
Transform:
  m_ObjectHideFlags: 0
  m_CorrespondingSourceObject: {fileID: 0}
  m_PrefabInstance: {fileID: 0}
  m_PrefabAsset: {fileID: 0}
  m_GameObject: {fileID: 408981030}
  m_LocalRotation: {x: 0, y: 0, z: 0, w: 1}
  m_LocalPosition: {x: 0, y: 11, z: 0}
  m_LocalScale: {x: 2, y: 12, z: 1}
  m_Children: []
  m_Father: {fileID: 0}
  m_RootOrder: 28
  m_LocalEulerAnglesHint: {x: 0, y: 0, z: 0}
--- !u!1001 &421632409
PrefabInstance:
  m_ObjectHideFlags: 0
  serializedVersion: 2
  m_Modification:
    m_TransformParent: {fileID: 0}
    m_Modifications:
    - target: {fileID: 8677629711170416854, guid: a6ef1bd00fb32ac498c68884225e426c,
        type: 3}
      propertyPath: m_Name
      value: cloudPrefab (18)
      objectReference: {fileID: 0}
    - target: {fileID: 8677629711170416852, guid: a6ef1bd00fb32ac498c68884225e426c,
        type: 3}
      propertyPath: m_LocalPosition.x
      value: 1.6381149
      objectReference: {fileID: 0}
    - target: {fileID: 8677629711170416852, guid: a6ef1bd00fb32ac498c68884225e426c,
        type: 3}
      propertyPath: m_LocalPosition.y
      value: 13.613342
      objectReference: {fileID: 0}
    - target: {fileID: 8677629711170416852, guid: a6ef1bd00fb32ac498c68884225e426c,
        type: 3}
      propertyPath: m_LocalPosition.z
      value: 0
      objectReference: {fileID: 0}
    - target: {fileID: 8677629711170416852, guid: a6ef1bd00fb32ac498c68884225e426c,
        type: 3}
      propertyPath: m_LocalRotation.x
      value: 0
      objectReference: {fileID: 0}
    - target: {fileID: 8677629711170416852, guid: a6ef1bd00fb32ac498c68884225e426c,
        type: 3}
      propertyPath: m_LocalRotation.y
      value: 0
      objectReference: {fileID: 0}
    - target: {fileID: 8677629711170416852, guid: a6ef1bd00fb32ac498c68884225e426c,
        type: 3}
      propertyPath: m_LocalRotation.z
      value: 0
      objectReference: {fileID: 0}
    - target: {fileID: 8677629711170416852, guid: a6ef1bd00fb32ac498c68884225e426c,
        type: 3}
      propertyPath: m_LocalRotation.w
      value: 1
      objectReference: {fileID: 0}
    - target: {fileID: 8677629711170416852, guid: a6ef1bd00fb32ac498c68884225e426c,
        type: 3}
      propertyPath: m_RootOrder
      value: 6
      objectReference: {fileID: 0}
    - target: {fileID: 8677629711170416852, guid: a6ef1bd00fb32ac498c68884225e426c,
        type: 3}
      propertyPath: m_LocalEulerAnglesHint.x
      value: 0
      objectReference: {fileID: 0}
    - target: {fileID: 8677629711170416852, guid: a6ef1bd00fb32ac498c68884225e426c,
        type: 3}
      propertyPath: m_LocalEulerAnglesHint.y
      value: 0
      objectReference: {fileID: 0}
    - target: {fileID: 8677629711170416852, guid: a6ef1bd00fb32ac498c68884225e426c,
        type: 3}
      propertyPath: m_LocalEulerAnglesHint.z
      value: 0
      objectReference: {fileID: 0}
    m_RemovedComponents: []
  m_SourcePrefab: {fileID: 100100000, guid: a6ef1bd00fb32ac498c68884225e426c, type: 3}
--- !u!1001 &516866893
PrefabInstance:
  m_ObjectHideFlags: 0
  serializedVersion: 2
  m_Modification:
    m_TransformParent: {fileID: 0}
    m_Modifications:
    - target: {fileID: 8677629711170416854, guid: a6ef1bd00fb32ac498c68884225e426c,
        type: 3}
      propertyPath: m_Name
      value: cloudPrefab (19)
      objectReference: {fileID: 0}
    - target: {fileID: 8677629711170416852, guid: a6ef1bd00fb32ac498c68884225e426c,
        type: 3}
      propertyPath: m_LocalPosition.x
      value: -2.65
      objectReference: {fileID: 0}
    - target: {fileID: 8677629711170416852, guid: a6ef1bd00fb32ac498c68884225e426c,
        type: 3}
      propertyPath: m_LocalPosition.y
      value: 13.05
      objectReference: {fileID: 0}
    - target: {fileID: 8677629711170416852, guid: a6ef1bd00fb32ac498c68884225e426c,
        type: 3}
      propertyPath: m_LocalPosition.z
      value: 0
      objectReference: {fileID: 0}
    - target: {fileID: 8677629711170416852, guid: a6ef1bd00fb32ac498c68884225e426c,
        type: 3}
      propertyPath: m_LocalRotation.x
      value: 0
      objectReference: {fileID: 0}
    - target: {fileID: 8677629711170416852, guid: a6ef1bd00fb32ac498c68884225e426c,
        type: 3}
      propertyPath: m_LocalRotation.y
      value: 0
      objectReference: {fileID: 0}
    - target: {fileID: 8677629711170416852, guid: a6ef1bd00fb32ac498c68884225e426c,
        type: 3}
      propertyPath: m_LocalRotation.z
      value: 0
      objectReference: {fileID: 0}
    - target: {fileID: 8677629711170416852, guid: a6ef1bd00fb32ac498c68884225e426c,
        type: 3}
      propertyPath: m_LocalRotation.w
      value: 1
      objectReference: {fileID: 0}
    - target: {fileID: 8677629711170416852, guid: a6ef1bd00fb32ac498c68884225e426c,
        type: 3}
      propertyPath: m_RootOrder
      value: 3
      objectReference: {fileID: 0}
    - target: {fileID: 8677629711170416852, guid: a6ef1bd00fb32ac498c68884225e426c,
        type: 3}
      propertyPath: m_LocalEulerAnglesHint.x
      value: 0
      objectReference: {fileID: 0}
    - target: {fileID: 8677629711170416852, guid: a6ef1bd00fb32ac498c68884225e426c,
        type: 3}
      propertyPath: m_LocalEulerAnglesHint.y
      value: 0
      objectReference: {fileID: 0}
    - target: {fileID: 8677629711170416852, guid: a6ef1bd00fb32ac498c68884225e426c,
        type: 3}
      propertyPath: m_LocalEulerAnglesHint.z
      value: 0
      objectReference: {fileID: 0}
    m_RemovedComponents: []
  m_SourcePrefab: {fileID: 100100000, guid: a6ef1bd00fb32ac498c68884225e426c, type: 3}
--- !u!1 &519420028
GameObject:
  m_ObjectHideFlags: 0
  m_CorrespondingSourceObject: {fileID: 0}
  m_PrefabInstance: {fileID: 0}
  m_PrefabAsset: {fileID: 0}
  serializedVersion: 6
  m_Component:
  - component: {fileID: 519420032}
  - component: {fileID: 519420031}
  - component: {fileID: 519420029}
  - component: {fileID: 519420030}
  m_Layer: 0
  m_Name: Main Camera
  m_TagString: MainCamera
  m_Icon: {fileID: 0}
  m_NavMeshLayer: 0
  m_StaticEditorFlags: 0
  m_IsActive: 1
--- !u!81 &519420029
AudioListener:
  m_ObjectHideFlags: 0
  m_CorrespondingSourceObject: {fileID: 0}
  m_PrefabInstance: {fileID: 0}
  m_PrefabAsset: {fileID: 0}
  m_GameObject: {fileID: 519420028}
  m_Enabled: 1
--- !u!114 &519420030
MonoBehaviour:
  m_ObjectHideFlags: 0
  m_CorrespondingSourceObject: {fileID: 0}
  m_PrefabInstance: {fileID: 0}
  m_PrefabAsset: {fileID: 0}
  m_GameObject: {fileID: 519420028}
  m_Enabled: 1
  m_EditorHideFlags: 0
  m_Script: {fileID: 11500000, guid: 3907d74b8bc13224598fac0c4b6b8b57, type: 3}
  m_Name: 
  m_EditorClassIdentifier: 
--- !u!20 &519420031
Camera:
  m_ObjectHideFlags: 0
  m_CorrespondingSourceObject: {fileID: 0}
  m_PrefabInstance: {fileID: 0}
  m_PrefabAsset: {fileID: 0}
  m_GameObject: {fileID: 519420028}
  m_Enabled: 1
  serializedVersion: 2
  m_ClearFlags: 2
  m_BackGroundColor: {r: 0.19215687, g: 0.3019608, b: 0.4745098, a: 0}
  m_projectionMatrixMode: 1
  m_SensorSize: {x: 36, y: 24}
  m_LensShift: {x: 0, y: 0}
  m_GateFitMode: 2
  m_FocalLength: 50
  m_NormalizedViewPortRect:
    serializedVersion: 2
    x: 0
    y: 0
    width: 1
    height: 1
  near clip plane: 0.3
  far clip plane: 1000
  field of view: 60
  orthographic: 1
  orthographic size: 5
  m_Depth: -1
  m_CullingMask:
    serializedVersion: 2
    m_Bits: 4294967295
  m_RenderingPath: -1
  m_TargetTexture: {fileID: 0}
  m_TargetDisplay: 0
  m_TargetEye: 0
  m_HDR: 1
  m_AllowMSAA: 0
  m_AllowDynamicResolution: 0
  m_ForceIntoRT: 0
  m_OcclusionCulling: 0
  m_StereoConvergence: 10
  m_StereoSeparation: 0.022
--- !u!4 &519420032
Transform:
  m_ObjectHideFlags: 0
  m_CorrespondingSourceObject: {fileID: 0}
  m_PrefabInstance: {fileID: 0}
  m_PrefabAsset: {fileID: 0}
  m_GameObject: {fileID: 519420028}
  m_LocalRotation: {x: 0, y: 0, z: 0, w: 1}
  m_LocalPosition: {x: 0, y: 0, z: -10}
  m_LocalScale: {x: 1, y: 1, z: 1}
  m_Children: []
  m_Father: {fileID: 0}
  m_RootOrder: 0
  m_LocalEulerAnglesHint: {x: 0, y: 0, z: 0}
--- !u!1001 &555499816
PrefabInstance:
  m_ObjectHideFlags: 0
  serializedVersion: 2
  m_Modification:
    m_TransformParent: {fileID: 0}
    m_Modifications:
    - target: {fileID: 8677629711170416854, guid: a6ef1bd00fb32ac498c68884225e426c,
        type: 3}
      propertyPath: m_Name
      value: cloudPrefab (12)
      objectReference: {fileID: 0}
    - target: {fileID: 8677629711170416852, guid: a6ef1bd00fb32ac498c68884225e426c,
        type: 3}
      propertyPath: m_LocalPosition.x
      value: -0.75238955
      objectReference: {fileID: 0}
    - target: {fileID: 8677629711170416852, guid: a6ef1bd00fb32ac498c68884225e426c,
        type: 3}
      propertyPath: m_LocalPosition.y
      value: 4.44952
      objectReference: {fileID: 0}
    - target: {fileID: 8677629711170416852, guid: a6ef1bd00fb32ac498c68884225e426c,
        type: 3}
      propertyPath: m_LocalPosition.z
      value: 0
      objectReference: {fileID: 0}
    - target: {fileID: 8677629711170416852, guid: a6ef1bd00fb32ac498c68884225e426c,
        type: 3}
      propertyPath: m_LocalRotation.x
      value: 0
      objectReference: {fileID: 0}
    - target: {fileID: 8677629711170416852, guid: a6ef1bd00fb32ac498c68884225e426c,
        type: 3}
      propertyPath: m_LocalRotation.y
      value: 0
      objectReference: {fileID: 0}
    - target: {fileID: 8677629711170416852, guid: a6ef1bd00fb32ac498c68884225e426c,
        type: 3}
      propertyPath: m_LocalRotation.z
      value: 0
      objectReference: {fileID: 0}
    - target: {fileID: 8677629711170416852, guid: a6ef1bd00fb32ac498c68884225e426c,
        type: 3}
      propertyPath: m_LocalRotation.w
      value: 1
      objectReference: {fileID: 0}
    - target: {fileID: 8677629711170416852, guid: a6ef1bd00fb32ac498c68884225e426c,
        type: 3}
      propertyPath: m_RootOrder
      value: 12
      objectReference: {fileID: 0}
    - target: {fileID: 8677629711170416852, guid: a6ef1bd00fb32ac498c68884225e426c,
        type: 3}
      propertyPath: m_LocalEulerAnglesHint.x
      value: 0
      objectReference: {fileID: 0}
    - target: {fileID: 8677629711170416852, guid: a6ef1bd00fb32ac498c68884225e426c,
        type: 3}
      propertyPath: m_LocalEulerAnglesHint.y
      value: 0
      objectReference: {fileID: 0}
    - target: {fileID: 8677629711170416852, guid: a6ef1bd00fb32ac498c68884225e426c,
        type: 3}
      propertyPath: m_LocalEulerAnglesHint.z
      value: 0
      objectReference: {fileID: 0}
    m_RemovedComponents: []
  m_SourcePrefab: {fileID: 100100000, guid: a6ef1bd00fb32ac498c68884225e426c, type: 3}
--- !u!1001 &814184664
PrefabInstance:
  m_ObjectHideFlags: 0
  serializedVersion: 2
  m_Modification:
    m_TransformParent: {fileID: 0}
    m_Modifications:
    - target: {fileID: 8677629711170416854, guid: a6ef1bd00fb32ac498c68884225e426c,
        type: 3}
      propertyPath: m_Name
      value: cloudPrefab (16)
      objectReference: {fileID: 0}
    - target: {fileID: 8677629711170416852, guid: a6ef1bd00fb32ac498c68884225e426c,
        type: 3}
      propertyPath: m_LocalPosition.x
      value: 2.335507
      objectReference: {fileID: 0}
    - target: {fileID: 8677629711170416852, guid: a6ef1bd00fb32ac498c68884225e426c,
        type: 3}
      propertyPath: m_LocalPosition.y
      value: 10.887583
      objectReference: {fileID: 0}
    - target: {fileID: 8677629711170416852, guid: a6ef1bd00fb32ac498c68884225e426c,
        type: 3}
      propertyPath: m_LocalPosition.z
      value: 0
      objectReference: {fileID: 0}
    - target: {fileID: 8677629711170416852, guid: a6ef1bd00fb32ac498c68884225e426c,
        type: 3}
      propertyPath: m_LocalRotation.x
      value: 0
      objectReference: {fileID: 0}
    - target: {fileID: 8677629711170416852, guid: a6ef1bd00fb32ac498c68884225e426c,
        type: 3}
      propertyPath: m_LocalRotation.y
      value: 0
      objectReference: {fileID: 0}
    - target: {fileID: 8677629711170416852, guid: a6ef1bd00fb32ac498c68884225e426c,
        type: 3}
      propertyPath: m_LocalRotation.z
      value: 0
      objectReference: {fileID: 0}
    - target: {fileID: 8677629711170416852, guid: a6ef1bd00fb32ac498c68884225e426c,
        type: 3}
      propertyPath: m_LocalRotation.w
      value: 1
      objectReference: {fileID: 0}
    - target: {fileID: 8677629711170416852, guid: a6ef1bd00fb32ac498c68884225e426c,
        type: 3}
      propertyPath: m_RootOrder
      value: 8
      objectReference: {fileID: 0}
    - target: {fileID: 8677629711170416852, guid: a6ef1bd00fb32ac498c68884225e426c,
        type: 3}
      propertyPath: m_LocalEulerAnglesHint.x
      value: 0
      objectReference: {fileID: 0}
    - target: {fileID: 8677629711170416852, guid: a6ef1bd00fb32ac498c68884225e426c,
        type: 3}
      propertyPath: m_LocalEulerAnglesHint.y
      value: 0
      objectReference: {fileID: 0}
    - target: {fileID: 8677629711170416852, guid: a6ef1bd00fb32ac498c68884225e426c,
        type: 3}
      propertyPath: m_LocalEulerAnglesHint.z
      value: 0
      objectReference: {fileID: 0}
    m_RemovedComponents: []
  m_SourcePrefab: {fileID: 100100000, guid: a6ef1bd00fb32ac498c68884225e426c, type: 3}
--- !u!1001 &851540073
PrefabInstance:
  m_ObjectHideFlags: 0
  serializedVersion: 2
  m_Modification:
    m_TransformParent: {fileID: 0}
    m_Modifications:
    - target: {fileID: 8677629711170416854, guid: a6ef1bd00fb32ac498c68884225e426c,
        type: 3}
      propertyPath: m_Name
      value: cloudPrefab (14)
      objectReference: {fileID: 0}
    - target: {fileID: 8677629711170416852, guid: a6ef1bd00fb32ac498c68884225e426c,
        type: 3}
      propertyPath: m_LocalPosition.x
      value: 0.5352597
      objectReference: {fileID: 0}
    - target: {fileID: 8677629711170416852, guid: a6ef1bd00fb32ac498c68884225e426c,
        type: 3}
      propertyPath: m_LocalPosition.y
      value: 8.118331
      objectReference: {fileID: 0}
    - target: {fileID: 8677629711170416852, guid: a6ef1bd00fb32ac498c68884225e426c,
        type: 3}
      propertyPath: m_LocalPosition.z
      value: 0
      objectReference: {fileID: 0}
    - target: {fileID: 8677629711170416852, guid: a6ef1bd00fb32ac498c68884225e426c,
        type: 3}
      propertyPath: m_LocalRotation.x
      value: 0
      objectReference: {fileID: 0}
    - target: {fileID: 8677629711170416852, guid: a6ef1bd00fb32ac498c68884225e426c,
        type: 3}
      propertyPath: m_LocalRotation.y
      value: 0
      objectReference: {fileID: 0}
    - target: {fileID: 8677629711170416852, guid: a6ef1bd00fb32ac498c68884225e426c,
        type: 3}
      propertyPath: m_LocalRotation.z
      value: 0
      objectReference: {fileID: 0}
    - target: {fileID: 8677629711170416852, guid: a6ef1bd00fb32ac498c68884225e426c,
        type: 3}
      propertyPath: m_LocalRotation.w
      value: 1
      objectReference: {fileID: 0}
    - target: {fileID: 8677629711170416852, guid: a6ef1bd00fb32ac498c68884225e426c,
        type: 3}
      propertyPath: m_RootOrder
      value: 10
      objectReference: {fileID: 0}
    - target: {fileID: 8677629711170416852, guid: a6ef1bd00fb32ac498c68884225e426c,
        type: 3}
      propertyPath: m_LocalEulerAnglesHint.x
      value: 0
      objectReference: {fileID: 0}
    - target: {fileID: 8677629711170416852, guid: a6ef1bd00fb32ac498c68884225e426c,
        type: 3}
      propertyPath: m_LocalEulerAnglesHint.y
      value: 0
      objectReference: {fileID: 0}
    - target: {fileID: 8677629711170416852, guid: a6ef1bd00fb32ac498c68884225e426c,
        type: 3}
      propertyPath: m_LocalEulerAnglesHint.z
      value: 0
      objectReference: {fileID: 0}
    m_RemovedComponents: []
  m_SourcePrefab: {fileID: 100100000, guid: a6ef1bd00fb32ac498c68884225e426c, type: 3}
--- !u!1001 &902457409
PrefabInstance:
  m_ObjectHideFlags: 0
  serializedVersion: 2
  m_Modification:
    m_TransformParent: {fileID: 0}
    m_Modifications:
    - target: {fileID: 8677629711170416854, guid: a6ef1bd00fb32ac498c68884225e426c,
        type: 3}
      propertyPath: m_Name
      value: cloudPrefab
      objectReference: {fileID: 0}
    - target: {fileID: 8677629711170416852, guid: a6ef1bd00fb32ac498c68884225e426c,
        type: 3}
      propertyPath: m_LocalPosition.x
      value: 2.110962
      objectReference: {fileID: 0}
    - target: {fileID: 8677629711170416852, guid: a6ef1bd00fb32ac498c68884225e426c,
        type: 3}
      propertyPath: m_LocalPosition.y
      value: 0.42221206
      objectReference: {fileID: 0}
    - target: {fileID: 8677629711170416852, guid: a6ef1bd00fb32ac498c68884225e426c,
        type: 3}
      propertyPath: m_LocalPosition.z
      value: 0
      objectReference: {fileID: 0}
    - target: {fileID: 8677629711170416852, guid: a6ef1bd00fb32ac498c68884225e426c,
        type: 3}
      propertyPath: m_LocalRotation.x
      value: 0
      objectReference: {fileID: 0}
    - target: {fileID: 8677629711170416852, guid: a6ef1bd00fb32ac498c68884225e426c,
        type: 3}
      propertyPath: m_LocalRotation.y
      value: 0
      objectReference: {fileID: 0}
    - target: {fileID: 8677629711170416852, guid: a6ef1bd00fb32ac498c68884225e426c,
        type: 3}
      propertyPath: m_LocalRotation.z
      value: 0
      objectReference: {fileID: 0}
    - target: {fileID: 8677629711170416852, guid: a6ef1bd00fb32ac498c68884225e426c,
        type: 3}
      propertyPath: m_LocalRotation.w
      value: 1
      objectReference: {fileID: 0}
    - target: {fileID: 8677629711170416852, guid: a6ef1bd00fb32ac498c68884225e426c,
        type: 3}
      propertyPath: m_RootOrder
      value: 22
      objectReference: {fileID: 0}
    - target: {fileID: 8677629711170416852, guid: a6ef1bd00fb32ac498c68884225e426c,
        type: 3}
      propertyPath: m_LocalEulerAnglesHint.x
      value: 0
      objectReference: {fileID: 0}
    - target: {fileID: 8677629711170416852, guid: a6ef1bd00fb32ac498c68884225e426c,
        type: 3}
      propertyPath: m_LocalEulerAnglesHint.y
      value: 0
      objectReference: {fileID: 0}
    - target: {fileID: 8677629711170416852, guid: a6ef1bd00fb32ac498c68884225e426c,
        type: 3}
      propertyPath: m_LocalEulerAnglesHint.z
      value: 0
      objectReference: {fileID: 0}
    m_RemovedComponents: []
  m_SourcePrefab: {fileID: 100100000, guid: a6ef1bd00fb32ac498c68884225e426c, type: 3}
--- !u!1001 &1086448746
PrefabInstance:
  m_ObjectHideFlags: 0
  serializedVersion: 2
  m_Modification:
    m_TransformParent: {fileID: 0}
    m_Modifications:
    - target: {fileID: 8677629711170416854, guid: a6ef1bd00fb32ac498c68884225e426c,
        type: 3}
      propertyPath: m_Name
      value: cloudPrefab (7)
      objectReference: {fileID: 0}
    - target: {fileID: 8677629711170416852, guid: a6ef1bd00fb32ac498c68884225e426c,
        type: 3}
      propertyPath: m_LocalPosition.x
      value: -1.5507445
      objectReference: {fileID: 0}
    - target: {fileID: 8677629711170416852, guid: a6ef1bd00fb32ac498c68884225e426c,
        type: 3}
      propertyPath: m_LocalPosition.y
      value: -4.6145144
      objectReference: {fileID: 0}
    - target: {fileID: 8677629711170416852, guid: a6ef1bd00fb32ac498c68884225e426c,
        type: 3}
      propertyPath: m_LocalPosition.z
      value: 0
      objectReference: {fileID: 0}
    - target: {fileID: 8677629711170416852, guid: a6ef1bd00fb32ac498c68884225e426c,
        type: 3}
      propertyPath: m_LocalRotation.x
      value: 0
      objectReference: {fileID: 0}
    - target: {fileID: 8677629711170416852, guid: a6ef1bd00fb32ac498c68884225e426c,
        type: 3}
      propertyPath: m_LocalRotation.y
      value: 0
      objectReference: {fileID: 0}
    - target: {fileID: 8677629711170416852, guid: a6ef1bd00fb32ac498c68884225e426c,
        type: 3}
      propertyPath: m_LocalRotation.z
      value: 0
      objectReference: {fileID: 0}
    - target: {fileID: 8677629711170416852, guid: a6ef1bd00fb32ac498c68884225e426c,
        type: 3}
      propertyPath: m_LocalRotation.w
      value: 1
      objectReference: {fileID: 0}
    - target: {fileID: 8677629711170416852, guid: a6ef1bd00fb32ac498c68884225e426c,
        type: 3}
      propertyPath: m_RootOrder
      value: 17
      objectReference: {fileID: 0}
    - target: {fileID: 8677629711170416852, guid: a6ef1bd00fb32ac498c68884225e426c,
        type: 3}
      propertyPath: m_LocalEulerAnglesHint.x
      value: 0
      objectReference: {fileID: 0}
    - target: {fileID: 8677629711170416852, guid: a6ef1bd00fb32ac498c68884225e426c,
        type: 3}
      propertyPath: m_LocalEulerAnglesHint.y
      value: 0
      objectReference: {fileID: 0}
    - target: {fileID: 8677629711170416852, guid: a6ef1bd00fb32ac498c68884225e426c,
        type: 3}
      propertyPath: m_LocalEulerAnglesHint.z
      value: 0
      objectReference: {fileID: 0}
    m_RemovedComponents: []
  m_SourcePrefab: {fileID: 100100000, guid: a6ef1bd00fb32ac498c68884225e426c, type: 3}
--- !u!1001 &1086872348
PrefabInstance:
  m_ObjectHideFlags: 0
  serializedVersion: 2
  m_Modification:
    m_TransformParent: {fileID: 0}
    m_Modifications:
    - target: {fileID: 8677629711170416854, guid: a6ef1bd00fb32ac498c68884225e426c,
        type: 3}
      propertyPath: m_Name
      value: cloudPrefab (6)
      objectReference: {fileID: 0}
    - target: {fileID: 8677629711170416852, guid: a6ef1bd00fb32ac498c68884225e426c,
        type: 3}
      propertyPath: m_LocalPosition.x
      value: 2.4486022
      objectReference: {fileID: 0}
    - target: {fileID: 8677629711170416852, guid: a6ef1bd00fb32ac498c68884225e426c,
        type: 3}
      propertyPath: m_LocalPosition.y
      value: 2.4855652
      objectReference: {fileID: 0}
    - target: {fileID: 8677629711170416852, guid: a6ef1bd00fb32ac498c68884225e426c,
        type: 3}
      propertyPath: m_LocalPosition.z
      value: 0
      objectReference: {fileID: 0}
    - target: {fileID: 8677629711170416852, guid: a6ef1bd00fb32ac498c68884225e426c,
        type: 3}
      propertyPath: m_LocalRotation.x
      value: 0
      objectReference: {fileID: 0}
    - target: {fileID: 8677629711170416852, guid: a6ef1bd00fb32ac498c68884225e426c,
        type: 3}
      propertyPath: m_LocalRotation.y
      value: 0
      objectReference: {fileID: 0}
    - target: {fileID: 8677629711170416852, guid: a6ef1bd00fb32ac498c68884225e426c,
        type: 3}
      propertyPath: m_LocalRotation.z
      value: 0
      objectReference: {fileID: 0}
    - target: {fileID: 8677629711170416852, guid: a6ef1bd00fb32ac498c68884225e426c,
        type: 3}
      propertyPath: m_LocalRotation.w
      value: 1
      objectReference: {fileID: 0}
    - target: {fileID: 8677629711170416852, guid: a6ef1bd00fb32ac498c68884225e426c,
        type: 3}
      propertyPath: m_RootOrder
      value: 18
      objectReference: {fileID: 0}
    - target: {fileID: 8677629711170416852, guid: a6ef1bd00fb32ac498c68884225e426c,
        type: 3}
      propertyPath: m_LocalEulerAnglesHint.x
      value: 0
      objectReference: {fileID: 0}
    - target: {fileID: 8677629711170416852, guid: a6ef1bd00fb32ac498c68884225e426c,
        type: 3}
      propertyPath: m_LocalEulerAnglesHint.y
      value: 0
      objectReference: {fileID: 0}
    - target: {fileID: 8677629711170416852, guid: a6ef1bd00fb32ac498c68884225e426c,
        type: 3}
      propertyPath: m_LocalEulerAnglesHint.z
      value: 0
      objectReference: {fileID: 0}
    m_RemovedComponents: []
  m_SourcePrefab: {fileID: 100100000, guid: a6ef1bd00fb32ac498c68884225e426c, type: 3}
--- !u!1001 &1107413717
PrefabInstance:
  m_ObjectHideFlags: 0
  serializedVersion: 2
  m_Modification:
    m_TransformParent: {fileID: 0}
    m_Modifications:
    - target: {fileID: 8677629711170416854, guid: a6ef1bd00fb32ac498c68884225e426c,
        type: 3}
      propertyPath: m_Name
      value: cloudPrefab (20)
      objectReference: {fileID: 0}
    - target: {fileID: 8677629711170416852, guid: a6ef1bd00fb32ac498c68884225e426c,
        type: 3}
      propertyPath: m_LocalPosition.x
      value: 2.5533848
      objectReference: {fileID: 0}
    - target: {fileID: 8677629711170416852, guid: a6ef1bd00fb32ac498c68884225e426c,
        type: 3}
      propertyPath: m_LocalPosition.y
      value: 15.8
      objectReference: {fileID: 0}
    - target: {fileID: 8677629711170416852, guid: a6ef1bd00fb32ac498c68884225e426c,
        type: 3}
      propertyPath: m_LocalPosition.z
      value: 0
      objectReference: {fileID: 0}
    - target: {fileID: 8677629711170416852, guid: a6ef1bd00fb32ac498c68884225e426c,
        type: 3}
      propertyPath: m_LocalRotation.x
      value: 0
      objectReference: {fileID: 0}
    - target: {fileID: 8677629711170416852, guid: a6ef1bd00fb32ac498c68884225e426c,
        type: 3}
      propertyPath: m_LocalRotation.y
      value: 0
      objectReference: {fileID: 0}
    - target: {fileID: 8677629711170416852, guid: a6ef1bd00fb32ac498c68884225e426c,
        type: 3}
      propertyPath: m_LocalRotation.z
      value: 0
      objectReference: {fileID: 0}
    - target: {fileID: 8677629711170416852, guid: a6ef1bd00fb32ac498c68884225e426c,
        type: 3}
      propertyPath: m_LocalRotation.w
      value: 1
      objectReference: {fileID: 0}
    - target: {fileID: 8677629711170416852, guid: a6ef1bd00fb32ac498c68884225e426c,
        type: 3}
      propertyPath: m_RootOrder
      value: 2
      objectReference: {fileID: 0}
    - target: {fileID: 8677629711170416852, guid: a6ef1bd00fb32ac498c68884225e426c,
        type: 3}
      propertyPath: m_LocalEulerAnglesHint.x
      value: 0
      objectReference: {fileID: 0}
    - target: {fileID: 8677629711170416852, guid: a6ef1bd00fb32ac498c68884225e426c,
        type: 3}
      propertyPath: m_LocalEulerAnglesHint.y
      value: 0
      objectReference: {fileID: 0}
    - target: {fileID: 8677629711170416852, guid: a6ef1bd00fb32ac498c68884225e426c,
        type: 3}
      propertyPath: m_LocalEulerAnglesHint.z
      value: 0
      objectReference: {fileID: 0}
    m_RemovedComponents: []
  m_SourcePrefab: {fileID: 100100000, guid: a6ef1bd00fb32ac498c68884225e426c, type: 3}
--- !u!1001 &1131587032
PrefabInstance:
  m_ObjectHideFlags: 0
  serializedVersion: 2
  m_Modification:
    m_TransformParent: {fileID: 0}
    m_Modifications:
    - target: {fileID: 8677629711170416854, guid: a6ef1bd00fb32ac498c68884225e426c,
        type: 3}
      propertyPath: m_Name
      value: cloudPrefab (15)
      objectReference: {fileID: 0}
    - target: {fileID: 8677629711170416852, guid: a6ef1bd00fb32ac498c68884225e426c,
        type: 3}
      propertyPath: m_LocalPosition.x
      value: -2.5118723
      objectReference: {fileID: 0}
    - target: {fileID: 8677629711170416852, guid: a6ef1bd00fb32ac498c68884225e426c,
        type: 3}
      propertyPath: m_LocalPosition.y
      value: 6.664018
      objectReference: {fileID: 0}
    - target: {fileID: 8677629711170416852, guid: a6ef1bd00fb32ac498c68884225e426c,
        type: 3}
      propertyPath: m_LocalPosition.z
      value: 0
      objectReference: {fileID: 0}
    - target: {fileID: 8677629711170416852, guid: a6ef1bd00fb32ac498c68884225e426c,
        type: 3}
      propertyPath: m_LocalRotation.x
      value: 0
      objectReference: {fileID: 0}
    - target: {fileID: 8677629711170416852, guid: a6ef1bd00fb32ac498c68884225e426c,
        type: 3}
      propertyPath: m_LocalRotation.y
      value: 0
      objectReference: {fileID: 0}
    - target: {fileID: 8677629711170416852, guid: a6ef1bd00fb32ac498c68884225e426c,
        type: 3}
      propertyPath: m_LocalRotation.z
      value: 0
      objectReference: {fileID: 0}
    - target: {fileID: 8677629711170416852, guid: a6ef1bd00fb32ac498c68884225e426c,
        type: 3}
      propertyPath: m_LocalRotation.w
      value: 1
      objectReference: {fileID: 0}
    - target: {fileID: 8677629711170416852, guid: a6ef1bd00fb32ac498c68884225e426c,
        type: 3}
      propertyPath: m_RootOrder
      value: 9
      objectReference: {fileID: 0}
    - target: {fileID: 8677629711170416852, guid: a6ef1bd00fb32ac498c68884225e426c,
        type: 3}
      propertyPath: m_LocalEulerAnglesHint.x
      value: 0
      objectReference: {fileID: 0}
    - target: {fileID: 8677629711170416852, guid: a6ef1bd00fb32ac498c68884225e426c,
        type: 3}
      propertyPath: m_LocalEulerAnglesHint.y
      value: 0
      objectReference: {fileID: 0}
    - target: {fileID: 8677629711170416852, guid: a6ef1bd00fb32ac498c68884225e426c,
        type: 3}
      propertyPath: m_LocalEulerAnglesHint.z
      value: 0
      objectReference: {fileID: 0}
    m_RemovedComponents: []
  m_SourcePrefab: {fileID: 100100000, guid: a6ef1bd00fb32ac498c68884225e426c, type: 3}
--- !u!1001 &1132525229
PrefabInstance:
  m_ObjectHideFlags: 0
  serializedVersion: 2
  m_Modification:
    m_TransformParent: {fileID: 0}
    m_Modifications:
    - target: {fileID: 8677629711170416854, guid: a6ef1bd00fb32ac498c68884225e426c,
        type: 3}
      propertyPath: m_Name
      value: cloudPrefab (13)
      objectReference: {fileID: 0}
    - target: {fileID: 8677629711170416852, guid: a6ef1bd00fb32ac498c68884225e426c,
        type: 3}
      propertyPath: m_LocalPosition.x
      value: 2.4397168
      objectReference: {fileID: 0}
    - target: {fileID: 8677629711170416852, guid: a6ef1bd00fb32ac498c68884225e426c,
        type: 3}
      propertyPath: m_LocalPosition.y
      value: 7.1141624
      objectReference: {fileID: 0}
    - target: {fileID: 8677629711170416852, guid: a6ef1bd00fb32ac498c68884225e426c,
        type: 3}
      propertyPath: m_LocalPosition.z
      value: 0
      objectReference: {fileID: 0}
    - target: {fileID: 8677629711170416852, guid: a6ef1bd00fb32ac498c68884225e426c,
        type: 3}
      propertyPath: m_LocalRotation.x
      value: 0
      objectReference: {fileID: 0}
    - target: {fileID: 8677629711170416852, guid: a6ef1bd00fb32ac498c68884225e426c,
        type: 3}
      propertyPath: m_LocalRotation.y
      value: 0
      objectReference: {fileID: 0}
    - target: {fileID: 8677629711170416852, guid: a6ef1bd00fb32ac498c68884225e426c,
        type: 3}
      propertyPath: m_LocalRotation.z
      value: 0
      objectReference: {fileID: 0}
    - target: {fileID: 8677629711170416852, guid: a6ef1bd00fb32ac498c68884225e426c,
        type: 3}
      propertyPath: m_LocalRotation.w
      value: 1
      objectReference: {fileID: 0}
    - target: {fileID: 8677629711170416852, guid: a6ef1bd00fb32ac498c68884225e426c,
        type: 3}
      propertyPath: m_RootOrder
      value: 11
      objectReference: {fileID: 0}
    - target: {fileID: 8677629711170416852, guid: a6ef1bd00fb32ac498c68884225e426c,
        type: 3}
      propertyPath: m_LocalEulerAnglesHint.x
      value: 0
      objectReference: {fileID: 0}
    - target: {fileID: 8677629711170416852, guid: a6ef1bd00fb32ac498c68884225e426c,
        type: 3}
      propertyPath: m_LocalEulerAnglesHint.y
      value: 0
      objectReference: {fileID: 0}
    - target: {fileID: 8677629711170416852, guid: a6ef1bd00fb32ac498c68884225e426c,
        type: 3}
      propertyPath: m_LocalEulerAnglesHint.z
      value: 0
      objectReference: {fileID: 0}
    m_RemovedComponents: []
  m_SourcePrefab: {fileID: 100100000, guid: a6ef1bd00fb32ac498c68884225e426c, type: 3}
--- !u!1001 &1178362491
PrefabInstance:
  m_ObjectHideFlags: 0
  serializedVersion: 2
  m_Modification:
    m_TransformParent: {fileID: 0}
    m_Modifications:
    - target: {fileID: 8677629711170416854, guid: a6ef1bd00fb32ac498c68884225e426c,
        type: 3}
      propertyPath: m_Name
      value: cloudPrefab (11)
      objectReference: {fileID: 0}
    - target: {fileID: 8677629711170416852, guid: a6ef1bd00fb32ac498c68884225e426c,
        type: 3}
      propertyPath: m_LocalPosition.x
      value: 2.4027328
      objectReference: {fileID: 0}
    - target: {fileID: 8677629711170416852, guid: a6ef1bd00fb32ac498c68884225e426c,
        type: 3}
      propertyPath: m_LocalPosition.y
      value: 4.2714086
      objectReference: {fileID: 0}
    - target: {fileID: 8677629711170416852, guid: a6ef1bd00fb32ac498c68884225e426c,
        type: 3}
      propertyPath: m_LocalPosition.z
      value: 0
      objectReference: {fileID: 0}
    - target: {fileID: 8677629711170416852, guid: a6ef1bd00fb32ac498c68884225e426c,
        type: 3}
      propertyPath: m_LocalRotation.x
      value: 0
      objectReference: {fileID: 0}
    - target: {fileID: 8677629711170416852, guid: a6ef1bd00fb32ac498c68884225e426c,
        type: 3}
      propertyPath: m_LocalRotation.y
      value: 0
      objectReference: {fileID: 0}
    - target: {fileID: 8677629711170416852, guid: a6ef1bd00fb32ac498c68884225e426c,
        type: 3}
      propertyPath: m_LocalRotation.z
      value: 0
      objectReference: {fileID: 0}
    - target: {fileID: 8677629711170416852, guid: a6ef1bd00fb32ac498c68884225e426c,
        type: 3}
      propertyPath: m_LocalRotation.w
      value: 1
      objectReference: {fileID: 0}
    - target: {fileID: 8677629711170416852, guid: a6ef1bd00fb32ac498c68884225e426c,
        type: 3}
      propertyPath: m_RootOrder
      value: 13
      objectReference: {fileID: 0}
    - target: {fileID: 8677629711170416852, guid: a6ef1bd00fb32ac498c68884225e426c,
        type: 3}
      propertyPath: m_LocalEulerAnglesHint.x
      value: 0
      objectReference: {fileID: 0}
    - target: {fileID: 8677629711170416852, guid: a6ef1bd00fb32ac498c68884225e426c,
        type: 3}
      propertyPath: m_LocalEulerAnglesHint.y
      value: 0
      objectReference: {fileID: 0}
    - target: {fileID: 8677629711170416852, guid: a6ef1bd00fb32ac498c68884225e426c,
        type: 3}
      propertyPath: m_LocalEulerAnglesHint.z
      value: 0
      objectReference: {fileID: 0}
    m_RemovedComponents: []
  m_SourcePrefab: {fileID: 100100000, guid: a6ef1bd00fb32ac498c68884225e426c, type: 3}
--- !u!1001 &1259015389
PrefabInstance:
  m_ObjectHideFlags: 0
  serializedVersion: 2
  m_Modification:
    m_TransformParent: {fileID: 0}
    m_Modifications:
    - target: {fileID: 8677629711170416854, guid: a6ef1bd00fb32ac498c68884225e426c,
        type: 3}
      propertyPath: m_Name
      value: cloudPrefab (8)
      objectReference: {fileID: 0}
    - target: {fileID: 8677629711170416852, guid: a6ef1bd00fb32ac498c68884225e426c,
        type: 3}
      propertyPath: m_LocalPosition.x
      value: 0.24
      objectReference: {fileID: 0}
    - target: {fileID: 8677629711170416852, guid: a6ef1bd00fb32ac498c68884225e426c,
        type: 3}
      propertyPath: m_LocalPosition.y
      value: 1.83
      objectReference: {fileID: 0}
    - target: {fileID: 8677629711170416852, guid: a6ef1bd00fb32ac498c68884225e426c,
        type: 3}
      propertyPath: m_LocalPosition.z
      value: 0
      objectReference: {fileID: 0}
    - target: {fileID: 8677629711170416852, guid: a6ef1bd00fb32ac498c68884225e426c,
        type: 3}
      propertyPath: m_LocalRotation.x
      value: 0
      objectReference: {fileID: 0}
    - target: {fileID: 8677629711170416852, guid: a6ef1bd00fb32ac498c68884225e426c,
        type: 3}
      propertyPath: m_LocalRotation.y
      value: 0
      objectReference: {fileID: 0}
    - target: {fileID: 8677629711170416852, guid: a6ef1bd00fb32ac498c68884225e426c,
        type: 3}
      propertyPath: m_LocalRotation.z
      value: 0
      objectReference: {fileID: 0}
    - target: {fileID: 8677629711170416852, guid: a6ef1bd00fb32ac498c68884225e426c,
        type: 3}
      propertyPath: m_LocalRotation.w
      value: 1
      objectReference: {fileID: 0}
    - target: {fileID: 8677629711170416852, guid: a6ef1bd00fb32ac498c68884225e426c,
        type: 3}
      propertyPath: m_RootOrder
      value: 16
      objectReference: {fileID: 0}
    - target: {fileID: 8677629711170416852, guid: a6ef1bd00fb32ac498c68884225e426c,
        type: 3}
      propertyPath: m_LocalEulerAnglesHint.x
      value: 0
      objectReference: {fileID: 0}
    - target: {fileID: 8677629711170416852, guid: a6ef1bd00fb32ac498c68884225e426c,
        type: 3}
      propertyPath: m_LocalEulerAnglesHint.y
      value: 0
      objectReference: {fileID: 0}
    - target: {fileID: 8677629711170416852, guid: a6ef1bd00fb32ac498c68884225e426c,
        type: 3}
      propertyPath: m_LocalEulerAnglesHint.z
      value: 0
      objectReference: {fileID: 0}
    m_RemovedComponents: []
  m_SourcePrefab: {fileID: 100100000, guid: a6ef1bd00fb32ac498c68884225e426c, type: 3}
--- !u!1001 &1365772786
PrefabInstance:
  m_ObjectHideFlags: 0
  serializedVersion: 2
  m_Modification:
    m_TransformParent: {fileID: 0}
    m_Modifications:
    - target: {fileID: 8677629711170416854, guid: a6ef1bd00fb32ac498c68884225e426c,
        type: 3}
      propertyPath: m_Name
      value: cloudPrefab (5)
      objectReference: {fileID: 0}
    - target: {fileID: 8677629711170416852, guid: a6ef1bd00fb32ac498c68884225e426c,
        type: 3}
      propertyPath: m_LocalPosition.x
      value: 0.05
      objectReference: {fileID: 0}
    - target: {fileID: 8677629711170416852, guid: a6ef1bd00fb32ac498c68884225e426c,
        type: 3}
      propertyPath: m_LocalPosition.y
      value: -4.56
      objectReference: {fileID: 0}
    - target: {fileID: 8677629711170416852, guid: a6ef1bd00fb32ac498c68884225e426c,
        type: 3}
      propertyPath: m_LocalPosition.z
      value: 0
      objectReference: {fileID: 0}
    - target: {fileID: 8677629711170416852, guid: a6ef1bd00fb32ac498c68884225e426c,
        type: 3}
      propertyPath: m_LocalRotation.x
      value: 0
      objectReference: {fileID: 0}
    - target: {fileID: 8677629711170416852, guid: a6ef1bd00fb32ac498c68884225e426c,
        type: 3}
      propertyPath: m_LocalRotation.y
      value: 0
      objectReference: {fileID: 0}
    - target: {fileID: 8677629711170416852, guid: a6ef1bd00fb32ac498c68884225e426c,
        type: 3}
      propertyPath: m_LocalRotation.z
      value: 0
      objectReference: {fileID: 0}
    - target: {fileID: 8677629711170416852, guid: a6ef1bd00fb32ac498c68884225e426c,
        type: 3}
      propertyPath: m_LocalRotation.w
      value: 1
      objectReference: {fileID: 0}
    - target: {fileID: 8677629711170416852, guid: a6ef1bd00fb32ac498c68884225e426c,
        type: 3}
      propertyPath: m_RootOrder
      value: 19
      objectReference: {fileID: 0}
    - target: {fileID: 8677629711170416852, guid: a6ef1bd00fb32ac498c68884225e426c,
        type: 3}
      propertyPath: m_LocalEulerAnglesHint.x
      value: 0
      objectReference: {fileID: 0}
    - target: {fileID: 8677629711170416852, guid: a6ef1bd00fb32ac498c68884225e426c,
        type: 3}
      propertyPath: m_LocalEulerAnglesHint.y
      value: 0
      objectReference: {fileID: 0}
    - target: {fileID: 8677629711170416852, guid: a6ef1bd00fb32ac498c68884225e426c,
        type: 3}
      propertyPath: m_LocalEulerAnglesHint.z
      value: 0
      objectReference: {fileID: 0}
    m_RemovedComponents: []
  m_SourcePrefab: {fileID: 100100000, guid: a6ef1bd00fb32ac498c68884225e426c, type: 3}
--- !u!1001 &1558096050
PrefabInstance:
  m_ObjectHideFlags: 0
  serializedVersion: 2
  m_Modification:
    m_TransformParent: {fileID: 0}
    m_Modifications:
    - target: {fileID: 8677629711170416854, guid: a6ef1bd00fb32ac498c68884225e426c,
        type: 3}
      propertyPath: m_Name
      value: cloudPrefab (21)
      objectReference: {fileID: 0}
    - target: {fileID: 8677629711170416852, guid: a6ef1bd00fb32ac498c68884225e426c,
        type: 3}
      propertyPath: m_LocalPosition.x
      value: -1.0818316
      objectReference: {fileID: 0}
    - target: {fileID: 8677629711170416852, guid: a6ef1bd00fb32ac498c68884225e426c,
        type: 3}
      propertyPath: m_LocalPosition.y
      value: 15.480519
      objectReference: {fileID: 0}
    - target: {fileID: 8677629711170416852, guid: a6ef1bd00fb32ac498c68884225e426c,
        type: 3}
      propertyPath: m_LocalPosition.z
      value: 0
      objectReference: {fileID: 0}
    - target: {fileID: 8677629711170416852, guid: a6ef1bd00fb32ac498c68884225e426c,
        type: 3}
      propertyPath: m_LocalRotation.x
      value: 0
      objectReference: {fileID: 0}
    - target: {fileID: 8677629711170416852, guid: a6ef1bd00fb32ac498c68884225e426c,
        type: 3}
      propertyPath: m_LocalRotation.y
      value: 0
      objectReference: {fileID: 0}
    - target: {fileID: 8677629711170416852, guid: a6ef1bd00fb32ac498c68884225e426c,
        type: 3}
      propertyPath: m_LocalRotation.z
      value: 0
      objectReference: {fileID: 0}
    - target: {fileID: 8677629711170416852, guid: a6ef1bd00fb32ac498c68884225e426c,
        type: 3}
      propertyPath: m_LocalRotation.w
      value: 1
      objectReference: {fileID: 0}
    - target: {fileID: 8677629711170416852, guid: a6ef1bd00fb32ac498c68884225e426c,
        type: 3}
      propertyPath: m_RootOrder
      value: 1
      objectReference: {fileID: 0}
    - target: {fileID: 8677629711170416852, guid: a6ef1bd00fb32ac498c68884225e426c,
        type: 3}
      propertyPath: m_LocalEulerAnglesHint.x
      value: 0
      objectReference: {fileID: 0}
    - target: {fileID: 8677629711170416852, guid: a6ef1bd00fb32ac498c68884225e426c,
        type: 3}
      propertyPath: m_LocalEulerAnglesHint.y
      value: 0
      objectReference: {fileID: 0}
    - target: {fileID: 8677629711170416852, guid: a6ef1bd00fb32ac498c68884225e426c,
        type: 3}
      propertyPath: m_LocalEulerAnglesHint.z
      value: 0
      objectReference: {fileID: 0}
    m_RemovedComponents: []
  m_SourcePrefab: {fileID: 100100000, guid: a6ef1bd00fb32ac498c68884225e426c, type: 3}
--- !u!1 &1593667992
GameObject:
  m_ObjectHideFlags: 0
  m_CorrespondingSourceObject: {fileID: 0}
  m_PrefabInstance: {fileID: 0}
  m_PrefabAsset: {fileID: 0}
  serializedVersion: 6
  m_Component:
  - component: {fileID: 1593667994}
  - component: {fileID: 1593667993}
  - component: {fileID: 1593667995}
  m_Layer: 0
  m_Name: flag
  m_TagString: Untagged
  m_Icon: {fileID: 0}
  m_NavMeshLayer: 0
  m_StaticEditorFlags: 0
  m_IsActive: 1
--- !u!212 &1593667993
SpriteRenderer:
  m_ObjectHideFlags: 0
  m_CorrespondingSourceObject: {fileID: 0}
  m_PrefabInstance: {fileID: 0}
  m_PrefabAsset: {fileID: 0}
  m_GameObject: {fileID: 1593667992}
  m_Enabled: 1
  m_CastShadows: 0
  m_ReceiveShadows: 0
  m_DynamicOccludee: 1
  m_MotionVectors: 1
  m_LightProbeUsage: 1
  m_ReflectionProbeUsage: 1
  m_RenderingLayerMask: 1
  m_RendererPriority: 0
  m_Materials:
  - {fileID: 10754, guid: 0000000000000000f000000000000000, type: 0}
  m_StaticBatchInfo:
    firstSubMesh: 0
    subMeshCount: 0
  m_StaticBatchRoot: {fileID: 0}
  m_ProbeAnchor: {fileID: 0}
  m_LightProbeVolumeOverride: {fileID: 0}
  m_ScaleInLightmap: 1
  m_PreserveUVs: 0
  m_IgnoreNormalsForChartDetection: 0
  m_ImportantGI: 0
  m_StitchLightmapSeams: 0
  m_SelectedEditorRenderState: 0
  m_MinimumChartSize: 4
  m_AutoUVMaxDistance: 0.5
  m_AutoUVMaxAngle: 89
  m_LightmapParameters: {fileID: 0}
  m_SortingLayerID: 0
  m_SortingLayer: 0
  m_SortingOrder: 1
  m_Sprite: {fileID: 21300000, guid: 8d88a7cec009bb74abf6378e3957cfaa, type: 3}
  m_Color: {r: 1, g: 1, b: 1, a: 1}
  m_FlipX: 0
  m_FlipY: 0
  m_DrawMode: 0
  m_Size: {x: 0.66, y: 1.03}
  m_AdaptiveModeThreshold: 0.5
  m_SpriteTileMode: 0
  m_WasSpriteAssigned: 1
  m_MaskInteraction: 0
  m_SpriteSortPoint: 0
--- !u!4 &1593667994
Transform:
  m_ObjectHideFlags: 0
  m_CorrespondingSourceObject: {fileID: 0}
  m_PrefabInstance: {fileID: 0}
  m_PrefabAsset: {fileID: 0}
  m_GameObject: {fileID: 1593667992}
  m_LocalRotation: {x: 0, y: 0, z: 0, w: 1}
  m_LocalPosition: {x: -1.77, y: 17.81, z: 0}
  m_LocalScale: {x: 1, y: 1, z: 1}
  m_Children: []
  m_Father: {fileID: 0}
  m_RootOrder: 27
  m_LocalEulerAnglesHint: {x: 0, y: 0, z: 0}
--- !u!61 &1593667995
BoxCollider2D:
  m_ObjectHideFlags: 0
  m_CorrespondingSourceObject: {fileID: 0}
  m_PrefabInstance: {fileID: 0}
  m_PrefabAsset: {fileID: 0}
  m_GameObject: {fileID: 1593667992}
  m_Enabled: 1
  m_Density: 1
  m_Material: {fileID: 0}
  m_IsTrigger: 1
  m_UsedByEffector: 0
  m_UsedByComposite: 0
  m_Offset: {x: 0, y: 0}
  m_SpriteTilingProperty:
    border: {x: 0, y: 0, z: 0, w: 0}
    pivot: {x: 0.5, y: 0.5}
    oldSize: {x: 0.66, y: 1.03}
    newSize: {x: 0.66, y: 1.03}
    adaptiveTilingThreshold: 0.5
    drawMode: 0
    adaptiveTiling: 0
  m_AutoTiling: 0
  serializedVersion: 2
  m_Size: {x: 0.66, y: 1.03}
  m_EdgeRadius: 0
--- !u!1001 &1668834446
PrefabInstance:
  m_ObjectHideFlags: 0
  serializedVersion: 2
  m_Modification:
    m_TransformParent: {fileID: 0}
    m_Modifications:
    - target: {fileID: 8677629711170416854, guid: a6ef1bd00fb32ac498c68884225e426c,
        type: 3}
      propertyPath: m_Name
      value: cloudPrefab (2)
      objectReference: {fileID: 0}
    - target: {fileID: 8677629711170416852, guid: a6ef1bd00fb32ac498c68884225e426c,
        type: 3}
      propertyPath: m_LocalPosition.x
      value: 1.89
      objectReference: {fileID: 0}
    - target: {fileID: 8677629711170416852, guid: a6ef1bd00fb32ac498c68884225e426c,
        type: 3}
      propertyPath: m_LocalPosition.y
      value: -2.35
      objectReference: {fileID: 0}
    - target: {fileID: 8677629711170416852, guid: a6ef1bd00fb32ac498c68884225e426c,
        type: 3}
      propertyPath: m_LocalPosition.z
      value: 0
      objectReference: {fileID: 0}
    - target: {fileID: 8677629711170416852, guid: a6ef1bd00fb32ac498c68884225e426c,
        type: 3}
      propertyPath: m_LocalRotation.x
      value: 0
      objectReference: {fileID: 0}
    - target: {fileID: 8677629711170416852, guid: a6ef1bd00fb32ac498c68884225e426c,
        type: 3}
      propertyPath: m_LocalRotation.y
      value: 0
      objectReference: {fileID: 0}
    - target: {fileID: 8677629711170416852, guid: a6ef1bd00fb32ac498c68884225e426c,
        type: 3}
      propertyPath: m_LocalRotation.z
      value: 0
      objectReference: {fileID: 0}
    - target: {fileID: 8677629711170416852, guid: a6ef1bd00fb32ac498c68884225e426c,
        type: 3}
      propertyPath: m_LocalRotation.w
      value: 1
      objectReference: {fileID: 0}
    - target: {fileID: 8677629711170416852, guid: a6ef1bd00fb32ac498c68884225e426c,
        type: 3}
      propertyPath: m_RootOrder
      value: 24
      objectReference: {fileID: 0}
    - target: {fileID: 8677629711170416852, guid: a6ef1bd00fb32ac498c68884225e426c,
        type: 3}
      propertyPath: m_LocalEulerAnglesHint.x
      value: 0
      objectReference: {fileID: 0}
    - target: {fileID: 8677629711170416852, guid: a6ef1bd00fb32ac498c68884225e426c,
        type: 3}
      propertyPath: m_LocalEulerAnglesHint.y
      value: 0
      objectReference: {fileID: 0}
    - target: {fileID: 8677629711170416852, guid: a6ef1bd00fb32ac498c68884225e426c,
        type: 3}
      propertyPath: m_LocalEulerAnglesHint.z
      value: 0
      objectReference: {fileID: 0}
    m_RemovedComponents: []
  m_SourcePrefab: {fileID: 100100000, guid: a6ef1bd00fb32ac498c68884225e426c, type: 3}
--- !u!1001 &1673730346
PrefabInstance:
  m_ObjectHideFlags: 0
  serializedVersion: 2
  m_Modification:
    m_TransformParent: {fileID: 0}
    m_Modifications:
    - target: {fileID: 8677629711170416854, guid: a6ef1bd00fb32ac498c68884225e426c,
        type: 3}
      propertyPath: m_Name
      value: cloudPrefab (10)
      objectReference: {fileID: 0}
    - target: {fileID: 8677629711170416852, guid: a6ef1bd00fb32ac498c68884225e426c,
        type: 3}
      propertyPath: m_LocalPosition.x
      value: 1.09
      objectReference: {fileID: 0}
    - target: {fileID: 8677629711170416852, guid: a6ef1bd00fb32ac498c68884225e426c,
        type: 3}
      propertyPath: m_LocalPosition.y
      value: 0.24
      objectReference: {fileID: 0}
    - target: {fileID: 8677629711170416852, guid: a6ef1bd00fb32ac498c68884225e426c,
        type: 3}
      propertyPath: m_LocalPosition.z
      value: -0
      objectReference: {fileID: 0}
    - target: {fileID: 8677629711170416852, guid: a6ef1bd00fb32ac498c68884225e426c,
        type: 3}
      propertyPath: m_LocalRotation.x
      value: -0.0039625666
      objectReference: {fileID: 0}
    - target: {fileID: 8677629711170416852, guid: a6ef1bd00fb32ac498c68884225e426c,
        type: 3}
      propertyPath: m_LocalRotation.y
      value: 0.012765642
      objectReference: {fileID: 0}
    - target: {fileID: 8677629711170416852, guid: a6ef1bd00fb32ac498c68884225e426c,
        type: 3}
      propertyPath: m_LocalRotation.z
      value: 0.29642835
      objectReference: {fileID: 0}
    - target: {fileID: 8677629711170416852, guid: a6ef1bd00fb32ac498c68884225e426c,
        type: 3}
      propertyPath: m_LocalRotation.w
      value: 0.9549616
      objectReference: {fileID: 0}
    - target: {fileID: 8677629711170416852, guid: a6ef1bd00fb32ac498c68884225e426c,
        type: 3}
      propertyPath: m_RootOrder
      value: 14
      objectReference: {fileID: 0}
    - target: {fileID: 8677629711170416852, guid: a6ef1bd00fb32ac498c68884225e426c,
        type: 3}
      propertyPath: m_LocalEulerAnglesHint.x
      value: -0.86700004
      objectReference: {fileID: 0}
    - target: {fileID: 8677629711170416852, guid: a6ef1bd00fb32ac498c68884225e426c,
        type: 3}
      propertyPath: m_LocalEulerAnglesHint.y
      value: 1.263
      objectReference: {fileID: 0}
    - target: {fileID: 8677629711170416852, guid: a6ef1bd00fb32ac498c68884225e426c,
        type: 3}
      propertyPath: m_LocalEulerAnglesHint.z
      value: 34.480003
      objectReference: {fileID: 0}
    m_RemovedComponents: []
  m_SourcePrefab: {fileID: 100100000, guid: a6ef1bd00fb32ac498c68884225e426c, type: 3}
--- !u!1001 &1863940055
PrefabInstance:
  m_ObjectHideFlags: 0
  serializedVersion: 2
  m_Modification:
    m_TransformParent: {fileID: 0}
    m_Modifications:
    - target: {fileID: 8677629711170416854, guid: a6ef1bd00fb32ac498c68884225e426c,
        type: 3}
      propertyPath: m_Name
      value: cloudPrefab (1)
      objectReference: {fileID: 0}
    - target: {fileID: 8677629711170416852, guid: a6ef1bd00fb32ac498c68884225e426c,
        type: 3}
      propertyPath: m_LocalPosition.x
      value: -2
      objectReference: {fileID: 0}
    - target: {fileID: 8677629711170416852, guid: a6ef1bd00fb32ac498c68884225e426c,
        type: 3}
      propertyPath: m_LocalPosition.y
      value: -0.08
      objectReference: {fileID: 0}
    - target: {fileID: 8677629711170416852, guid: a6ef1bd00fb32ac498c68884225e426c,
        type: 3}
      propertyPath: m_LocalPosition.z
      value: 0
      objectReference: {fileID: 0}
    - target: {fileID: 8677629711170416852, guid: a6ef1bd00fb32ac498c68884225e426c,
        type: 3}
      propertyPath: m_LocalRotation.x
      value: 0
      objectReference: {fileID: 0}
    - target: {fileID: 8677629711170416852, guid: a6ef1bd00fb32ac498c68884225e426c,
        type: 3}
      propertyPath: m_LocalRotation.y
      value: 0
      objectReference: {fileID: 0}
    - target: {fileID: 8677629711170416852, guid: a6ef1bd00fb32ac498c68884225e426c,
        type: 3}
      propertyPath: m_LocalRotation.z
      value: 0
      objectReference: {fileID: 0}
    - target: {fileID: 8677629711170416852, guid: a6ef1bd00fb32ac498c68884225e426c,
        type: 3}
      propertyPath: m_LocalRotation.w
      value: 1
      objectReference: {fileID: 0}
    - target: {fileID: 8677629711170416852, guid: a6ef1bd00fb32ac498c68884225e426c,
        type: 3}
      propertyPath: m_RootOrder
      value: 21
      objectReference: {fileID: 0}
    - target: {fileID: 8677629711170416852, guid: a6ef1bd00fb32ac498c68884225e426c,
        type: 3}
      propertyPath: m_LocalEulerAnglesHint.x
      value: 0
      objectReference: {fileID: 0}
    - target: {fileID: 8677629711170416852, guid: a6ef1bd00fb32ac498c68884225e426c,
        type: 3}
      propertyPath: m_LocalEulerAnglesHint.y
      value: 0
      objectReference: {fileID: 0}
    - target: {fileID: 8677629711170416852, guid: a6ef1bd00fb32ac498c68884225e426c,
        type: 3}
      propertyPath: m_LocalEulerAnglesHint.z
      value: 0
      objectReference: {fileID: 0}
    m_RemovedComponents: []
  m_SourcePrefab: {fileID: 100100000, guid: a6ef1bd00fb32ac498c68884225e426c, type: 3}
--- !u!1 &1962445165
GameObject:
  m_ObjectHideFlags: 0
  m_CorrespondingSourceObject: {fileID: 0}
  m_PrefabInstance: {fileID: 0}
  m_PrefabAsset: {fileID: 0}
  serializedVersion: 6
  m_Component:
  - component: {fileID: 1962445168}
  - component: {fileID: 1962445167}
  - component: {fileID: 1962445166}
  - component: {fileID: 1962445169}
  - component: {fileID: 1962445170}
  - component: {fileID: 1962445171}
  - component: {fileID: 1962445172}
  m_Layer: 0
  m_Name: cat
  m_TagString: Untagged
  m_Icon: {fileID: 0}
  m_NavMeshLayer: 0
  m_StaticEditorFlags: 0
  m_IsActive: 1
--- !u!50 &1962445166
Rigidbody2D:
  serializedVersion: 4
  m_ObjectHideFlags: 0
  m_CorrespondingSourceObject: {fileID: 0}
  m_PrefabInstance: {fileID: 0}
  m_PrefabAsset: {fileID: 0}
  m_GameObject: {fileID: 1962445165}
  m_BodyType: 0
  m_Simulated: 1
  m_UseFullKinematicContacts: 0
  m_UseAutoMass: 0
  m_Mass: 1
  m_LinearDrag: 0
  m_AngularDrag: 0.05
  m_GravityScale: 3
  m_Material: {fileID: 0}
  m_Interpolate: 0
  m_SleepingMode: 1
  m_CollisionDetection: 0
  m_Constraints: 4
--- !u!212 &1962445167
SpriteRenderer:
  m_ObjectHideFlags: 0
  m_CorrespondingSourceObject: {fileID: 0}
  m_PrefabInstance: {fileID: 0}
  m_PrefabAsset: {fileID: 0}
  m_GameObject: {fileID: 1962445165}
  m_Enabled: 1
  m_CastShadows: 0
  m_ReceiveShadows: 0
  m_DynamicOccludee: 1
  m_MotionVectors: 1
  m_LightProbeUsage: 1
  m_ReflectionProbeUsage: 1
  m_RenderingLayerMask: 1
  m_RendererPriority: 0
  m_Materials:
  - {fileID: 10754, guid: 0000000000000000f000000000000000, type: 0}
  m_StaticBatchInfo:
    firstSubMesh: 0
    subMeshCount: 0
  m_StaticBatchRoot: {fileID: 0}
  m_ProbeAnchor: {fileID: 0}
  m_LightProbeVolumeOverride: {fileID: 0}
  m_ScaleInLightmap: 1
  m_PreserveUVs: 0
  m_IgnoreNormalsForChartDetection: 0
  m_ImportantGI: 0
  m_StitchLightmapSeams: 0
  m_SelectedEditorRenderState: 0
  m_MinimumChartSize: 4
  m_AutoUVMaxDistance: 0.5
  m_AutoUVMaxAngle: 89
  m_LightmapParameters: {fileID: 0}
  m_SortingLayerID: 0
  m_SortingLayer: 0
  m_SortingOrder: 1
  m_Sprite: {fileID: 21300000, guid: 6dc4333d740641d4983ae371261d8d03, type: 3}
  m_Color: {r: 1, g: 1, b: 1, a: 1}
  m_FlipX: 0
  m_FlipY: 0
  m_DrawMode: 0
  m_Size: {x: 0.96, y: 0.96}
  m_AdaptiveModeThreshold: 0.5
  m_SpriteTileMode: 0
  m_WasSpriteAssigned: 1
  m_MaskInteraction: 0
  m_SpriteSortPoint: 0
--- !u!4 &1962445168
Transform:
  m_ObjectHideFlags: 0
  m_CorrespondingSourceObject: {fileID: 0}
  m_PrefabInstance: {fileID: 0}
  m_PrefabAsset: {fileID: 0}
  m_GameObject: {fileID: 1962445165}
  m_LocalRotation: {x: 0, y: 0, z: 0, w: 1}
  m_LocalPosition: {x: 0, y: 0, z: 0}
  m_LocalScale: {x: 1, y: 1, z: 1}
  m_Children: []
  m_Father: {fileID: 0}
  m_RootOrder: 26
  m_LocalEulerAnglesHint: {x: 0, y: 0, z: 0}
--- !u!58 &1962445169
CircleCollider2D:
  m_ObjectHideFlags: 0
  m_CorrespondingSourceObject: {fileID: 0}
  m_PrefabInstance: {fileID: 0}
  m_PrefabAsset: {fileID: 0}
  m_GameObject: {fileID: 1962445165}
  m_Enabled: 1
  m_Density: 1
  m_Material: {fileID: 0}
  m_IsTrigger: 0
  m_UsedByEffector: 0
  m_UsedByComposite: 0
  m_Offset: {x: 0, y: -0.3}
  serializedVersion: 2
  m_Radius: 0.15
--- !u!61 &1962445170
BoxCollider2D:
  m_ObjectHideFlags: 0
  m_CorrespondingSourceObject: {fileID: 0}
  m_PrefabInstance: {fileID: 0}
  m_PrefabAsset: {fileID: 0}
  m_GameObject: {fileID: 1962445165}
  m_Enabled: 1
  m_Density: 1
  m_Material: {fileID: 0}
  m_IsTrigger: 0
  m_UsedByEffector: 0
  m_UsedByComposite: 1
  m_Offset: {x: 0, y: 0}
  m_SpriteTilingProperty:
    border: {x: 0, y: 0, z: 0, w: 0}
    pivot: {x: 0.5, y: 0.5}
    oldSize: {x: 0.96, y: 0.96}
    newSize: {x: 0.96, y: 0.96}
    adaptiveTilingThreshold: 0.5
    drawMode: 0
    adaptiveTiling: 0
  m_AutoTiling: 0
  serializedVersion: 2
  m_Size: {x: 0.3, y: 0.6}
  m_EdgeRadius: 0
--- !u!114 &1962445171
MonoBehaviour:
  m_ObjectHideFlags: 0
  m_CorrespondingSourceObject: {fileID: 0}
  m_PrefabInstance: {fileID: 0}
  m_PrefabAsset: {fileID: 0}
  m_GameObject: {fileID: 1962445165}
  m_Enabled: 1
  m_EditorHideFlags: 0
  m_Script: {fileID: 11500000, guid: fb11916736bf1a54e9bfe76657b6feaa, type: 3}
  m_Name: 
  m_EditorClassIdentifier: 
--- !u!95 &1962445172
Animator:
  serializedVersion: 3
  m_ObjectHideFlags: 0
  m_CorrespondingSourceObject: {fileID: 0}
  m_PrefabInstance: {fileID: 0}
  m_PrefabAsset: {fileID: 0}
  m_GameObject: {fileID: 1962445165}
  m_Enabled: 1
  m_Avatar: {fileID: 0}
  m_Controller: {fileID: 9100000, guid: f0a7fafb2b21deb4396f0254790bfaba, type: 2}
  m_CullingMode: 0
  m_UpdateMode: 0
  m_ApplyRootMotion: 0
  m_LinearVelocityBlending: 0
  m_WarningMessage: 
  m_HasTransformHierarchy: 1
  m_AllowConstantClipSamplingOptimization: 1
  m_KeepAnimatorControllerStateOnDisable: 0
--- !u!1001 &2028816259
PrefabInstance:
  m_ObjectHideFlags: 0
  serializedVersion: 2
  m_Modification:
    m_TransformParent: {fileID: 0}
    m_Modifications:
    - target: {fileID: 8677629711170416854, guid: a6ef1bd00fb32ac498c68884225e426c,
        type: 3}
      propertyPath: m_Name
      value: cloudPrefab (4)
      objectReference: {fileID: 0}
    - target: {fileID: 8677629711170416852, guid: a6ef1bd00fb32ac498c68884225e426c,
        type: 3}
      propertyPath: m_LocalPosition.x
      value: 1.81
      objectReference: {fileID: 0}
    - target: {fileID: 8677629711170416852, guid: a6ef1bd00fb32ac498c68884225e426c,
        type: 3}
      propertyPath: m_LocalPosition.y
      value: -4.6
      objectReference: {fileID: 0}
    - target: {fileID: 8677629711170416852, guid: a6ef1bd00fb32ac498c68884225e426c,
        type: 3}
      propertyPath: m_LocalPosition.z
      value: 0
      objectReference: {fileID: 0}
    - target: {fileID: 8677629711170416852, guid: a6ef1bd00fb32ac498c68884225e426c,
        type: 3}
      propertyPath: m_LocalRotation.x
      value: 0
      objectReference: {fileID: 0}
    - target: {fileID: 8677629711170416852, guid: a6ef1bd00fb32ac498c68884225e426c,
        type: 3}
      propertyPath: m_LocalRotation.y
      value: 0
      objectReference: {fileID: 0}
    - target: {fileID: 8677629711170416852, guid: a6ef1bd00fb32ac498c68884225e426c,
        type: 3}
      propertyPath: m_LocalRotation.z
      value: 0
      objectReference: {fileID: 0}
    - target: {fileID: 8677629711170416852, guid: a6ef1bd00fb32ac498c68884225e426c,
        type: 3}
      propertyPath: m_LocalRotation.w
      value: 1
      objectReference: {fileID: 0}
    - target: {fileID: 8677629711170416852, guid: a6ef1bd00fb32ac498c68884225e426c,
        type: 3}
      propertyPath: m_RootOrder
      value: 20
      objectReference: {fileID: 0}
    - target: {fileID: 8677629711170416852, guid: a6ef1bd00fb32ac498c68884225e426c,
        type: 3}
      propertyPath: m_LocalEulerAnglesHint.x
      value: 0
      objectReference: {fileID: 0}
    - target: {fileID: 8677629711170416852, guid: a6ef1bd00fb32ac498c68884225e426c,
        type: 3}
      propertyPath: m_LocalEulerAnglesHint.y
      value: 0
      objectReference: {fileID: 0}
    - target: {fileID: 8677629711170416852, guid: a6ef1bd00fb32ac498c68884225e426c,
        type: 3}
      propertyPath: m_LocalEulerAnglesHint.z
      value: 0
      objectReference: {fileID: 0}
    - target: {fileID: 8677629711170416852, guid: a6ef1bd00fb32ac498c68884225e426c,
        type: 3}
      propertyPath: m_LocalScale.x
      value: 1.0210074
      objectReference: {fileID: 0}
    - target: {fileID: 8677629711170416852, guid: a6ef1bd00fb32ac498c68884225e426c,
        type: 3}
      propertyPath: m_LocalScale.y
      value: 1.0337701
      objectReference: {fileID: 0}
    - target: {fileID: 8677629711170416852, guid: a6ef1bd00fb32ac498c68884225e426c,
        type: 3}
      propertyPath: m_LocalScale.z
      value: 1.0210074
      objectReference: {fileID: 0}
    m_RemovedComponents: []
  m_SourcePrefab: {fileID: 100100000, guid: a6ef1bd00fb32ac498c68884225e426c, type: 3}
--- !u!1001 &2036426709
PrefabInstance:
  m_ObjectHideFlags: 0
  serializedVersion: 2
  m_Modification:
    m_TransformParent: {fileID: 0}
    m_Modifications:
    - target: {fileID: 8677629711170416854, guid: a6ef1bd00fb32ac498c68884225e426c,
        type: 3}
      propertyPath: m_Name
      value: cloudPrefab (17)
      objectReference: {fileID: 0}
    - target: {fileID: 8677629711170416852, guid: a6ef1bd00fb32ac498c68884225e426c,
        type: 3}
      propertyPath: m_LocalPosition.x
      value: -1.5899882
      objectReference: {fileID: 0}
    - target: {fileID: 8677629711170416852, guid: a6ef1bd00fb32ac498c68884225e426c,
        type: 3}
      propertyPath: m_LocalPosition.y
      value: 10.403618
      objectReference: {fileID: 0}
    - target: {fileID: 8677629711170416852, guid: a6ef1bd00fb32ac498c68884225e426c,
        type: 3}
      propertyPath: m_LocalPosition.z
      value: 0
      objectReference: {fileID: 0}
    - target: {fileID: 8677629711170416852, guid: a6ef1bd00fb32ac498c68884225e426c,
        type: 3}
      propertyPath: m_LocalRotation.x
      value: 0
      objectReference: {fileID: 0}
    - target: {fileID: 8677629711170416852, guid: a6ef1bd00fb32ac498c68884225e426c,
        type: 3}
      propertyPath: m_LocalRotation.y
      value: 0
      objectReference: {fileID: 0}
    - target: {fileID: 8677629711170416852, guid: a6ef1bd00fb32ac498c68884225e426c,
        type: 3}
      propertyPath: m_LocalRotation.z
      value: 0
      objectReference: {fileID: 0}
    - target: {fileID: 8677629711170416852, guid: a6ef1bd00fb32ac498c68884225e426c,
        type: 3}
      propertyPath: m_LocalRotation.w
      value: 1
      objectReference: {fileID: 0}
    - target: {fileID: 8677629711170416852, guid: a6ef1bd00fb32ac498c68884225e426c,
        type: 3}
      propertyPath: m_RootOrder
      value: 7
      objectReference: {fileID: 0}
    - target: {fileID: 8677629711170416852, guid: a6ef1bd00fb32ac498c68884225e426c,
        type: 3}
      propertyPath: m_LocalEulerAnglesHint.x
      value: 0
      objectReference: {fileID: 0}
    - target: {fileID: 8677629711170416852, guid: a6ef1bd00fb32ac498c68884225e426c,
        type: 3}
      propertyPath: m_LocalEulerAnglesHint.y
      value: 0
      objectReference: {fileID: 0}
    - target: {fileID: 8677629711170416852, guid: a6ef1bd00fb32ac498c68884225e426c,
        type: 3}
      propertyPath: m_LocalEulerAnglesHint.z
      value: 0
      objectReference: {fileID: 0}
    m_RemovedComponents: []
  m_SourcePrefab: {fileID: 100100000, guid: a6ef1bd00fb32ac498c68884225e426c, type: 3}
--- !u!1001 &8677629711278508282
PrefabInstance:
  m_ObjectHideFlags: 0
  serializedVersion: 2
  m_Modification:
    m_TransformParent: {fileID: 0}
    m_Modifications:
    - target: {fileID: 8677629711170416854, guid: a6ef1bd00fb32ac498c68884225e426c,
        type: 3}
      propertyPath: m_Name
      value: cloud
      objectReference: {fileID: 0}
    - target: {fileID: 8677629711170416852, guid: a6ef1bd00fb32ac498c68884225e426c,
        type: 3}
      propertyPath: m_LocalPosition.x
      value: -0.08
      objectReference: {fileID: 0}
    - target: {fileID: 8677629711170416852, guid: a6ef1bd00fb32ac498c68884225e426c,
        type: 3}
      propertyPath: m_LocalPosition.y
      value: -1.47
      objectReference: {fileID: 0}
    - target: {fileID: 8677629711170416852, guid: a6ef1bd00fb32ac498c68884225e426c,
        type: 3}
      propertyPath: m_LocalPosition.z
      value: 0
      objectReference: {fileID: 0}
    - target: {fileID: 8677629711170416852, guid: a6ef1bd00fb32ac498c68884225e426c,
        type: 3}
      propertyPath: m_LocalRotation.x
      value: 0
      objectReference: {fileID: 0}
    - target: {fileID: 8677629711170416852, guid: a6ef1bd00fb32ac498c68884225e426c,
        type: 3}
      propertyPath: m_LocalRotation.y
      value: 0
      objectReference: {fileID: 0}
    - target: {fileID: 8677629711170416852, guid: a6ef1bd00fb32ac498c68884225e426c,
        type: 3}
      propertyPath: m_LocalRotation.z
      value: 0
      objectReference: {fileID: 0}
    - target: {fileID: 8677629711170416852, guid: a6ef1bd00fb32ac498c68884225e426c,
        type: 3}
      propertyPath: m_LocalRotation.w
      value: 1
      objectReference: {fileID: 0}
    - target: {fileID: 8677629711170416852, guid: a6ef1bd00fb32ac498c68884225e426c,
        type: 3}
      propertyPath: m_RootOrder
      value: 25
      objectReference: {fileID: 0}
    - target: {fileID: 8677629711170416852, guid: a6ef1bd00fb32ac498c68884225e426c,
        type: 3}
      propertyPath: m_LocalEulerAnglesHint.x
      value: 0
      objectReference: {fileID: 0}
    - target: {fileID: 8677629711170416852, guid: a6ef1bd00fb32ac498c68884225e426c,
        type: 3}
      propertyPath: m_LocalEulerAnglesHint.y
      value: 0
      objectReference: {fileID: 0}
    - target: {fileID: 8677629711170416852, guid: a6ef1bd00fb32ac498c68884225e426c,
        type: 3}
      propertyPath: m_LocalEulerAnglesHint.z
      value: 0
      objectReference: {fileID: 0}
    m_RemovedComponents: []
  m_SourcePrefab: {fileID: 100100000, guid: a6ef1bd00fb32ac498c68884225e426c, type: 3}
